{
  "initialURL": "http://joomah.com/mobile/",
  "title": "Joomah",
  "shortName": null,
  "redirects": [],
  "profilePickerJS": null,
  "versionCode": 27,
  "versionName": null,
  "usesGeolocation": false,
  "interactiveDelay": 0.2,
  "regexInternalExternal": [
    {
      "regex": "https?://([-\\w]+\\.)*facebook\\.com/pages/.*",
      "internal": false,
      "_id": "53a26577df0cf3d66b615ee4"
    },
    {
      "regex": "https?://([-\\w]+\\.)*facebook\\.com/sharer\\.php.*",
      "internal": false,
      "_id": "53a26577df0cf3d66b615ee3"
    },
    {
      "regex": "https?://([-\\w]+\\.)*plus\\.google\\.com/share.*",
      "internal": false,
      "_id": "53a26577df0cf3d66b615ee2"
    },
    {
      "regex": "https?://([-\\w]+\\.)*twitter\\.com/intent/.*",
      "internal": false,
      "_id": "53a26577df0cf3d66b615ee1"
    }
  ],
  "interceptForms": [],
  "navStructure": {
    "urlLevels": [
      {}
    ],
    "titles": [
      {}
    ]
  },
  "showToolbar": false,
  "showActionBar": true,
  "showNavigationBar": true,
  "menus": {
    "default": {
      "items": [
        {
          "name": "Sign in",
          "url": "http://joomah.com/mobile",
          "subLinks": [],
          "icon": "fa-user",
          "isGrouping": false
        },
        {
          "url": "http://joomah.com/mobile/register/",
          "name": "Join jóòmah",
          "subLinks": [],
          "icon": "fa-power-off",
          "isGrouping": false
        },
        {
          "url": "http://joomah.com/recover/",
          "name": "Forgot your password?",
          "subLinks": [],
          "icon": "fa-question",
          "isGrouping": false
        }
      ]
    },
    "loggedIn": {
      "items": [
        {
          "url": "http://joomah.com/mobile/start",
          "name": "Home",
          "subLinks": [],
          "icon": null,
          "isGrouping": false
        },
        {
          "url": "http://joomah.com/mobile/notice",
          "name": "Notice Board",
          "subLinks": [],
          "icon": null,
          "isGrouping": false
        },
        {
          "name": "Blog",
          "url": "http://blog.joomah.com/",
          "subLinks": [],
          "icon": null,
          "isGrouping": false
        },
        {
          "name": "Search",
          "url": "http://joomah.com/mobile/search",
          "subLinks": [],
          "icon": null,
          "isGrouping": false
        },
        {
          "name": "History",
          "url": "http://joomah.com/mobile/job-history",
          "subLinks": [],
          "icon": null,
          "isGrouping": false
        },
        {
          "name": "Education",
          "url": "http://joomah.com/mobile/education",
          "subLinks": [],
          "icon": null,
          "isGrouping": false
        },
        {
          "name": "Career",
          "url": "http://joomah.com/mobile/career",
          "subLinks": [],
          "icon": null,
          "isGrouping": false
        },
        {
          "name": "Quizzes",
          "url": "http://joomah.com/mobile/quiz",
          "subLinks": [],
          "icon": null,
          "isGrouping": false
        },
        {
          "name": "Settings",
          "url": "http://joomah.com/mobile/settings",
          "subLinks": [],
          "icon": null,
          "isGrouping": false
        },
        {
          "name": "Logout",
          "url": "http://joomah.com/logout",
          "subLinks": [],
          "icon": null,
          "isGrouping": false
        }
      ]
    }
  }
}